{
    "from": 1,
    "to": 20,
    "count": 441,
    "_links": {
        "next": {
            "href": "https://api.edamam.com/api/recipes/v2?q=lemon%2C%20peach%2C%20almond&app_key=32c858b39ceb0df2fadf69b33d49e09c&count=1&_cont=CHcVQBtNNQphDmgVQ3tAEX4BZ1RtAgMORGRGAGQaZVd7DQMBUXlSV2QVY117DQNRR2JAC2MbMFQgAQBUFjFEAGsSYVMnVQYVLnlSVSBMPkd5BgMbUSYRVTdgMgksRlpSAAcRXTVGcV84SU4%3D&type=public&app_id=51f9801c",
            "title": "Next page"
        }
    },
    "hits": [
    {
    "recipe": {
    "uri": "http://www.edamam.com/ontologies/edamam.owl#recipe_6df83bbfd9978922e51f1f0a8a453031",
    "label": "Peach almond cake",
    "image": "https://www.edamam.com/web-img/26a/26adbcecbc455b023ed759962d7094d3.jpg",
    "source": "Food52",
    "url": "https://food52.com/recipes/83356-peach-almond-cake",
    "shareAs": "http://www.edamam.com/recipe/peach-almond-cake-6df83bbfd9978922e51f1f0a8a453031/lemon%2C+peach%2C+almond",
    "yield": 8.0,
    "dietLabels": [
    "Low-Sodium"
    ],
    "healthLabels": [
    "Kidney-Friendly",
    "Vegetarian",
    "Pescatarian",
    "Peanut-Free",
    "Soy-Free",
    "Fish-Free",
    "Shellfish-Free",
    "Pork-Free",
    "Red-Meat-Free",
    "Crustacean-Free",
    "Celery-Free",
    "Mustard-Free",
    "Sesame-Free",
    "Lupine-Free",
    "Mollusk-Free",
    "Alcohol-Free",
    "Kosher"
    ],
    "cautions": [
    "Sulfites",
    "FODMAP"
    ],
    "ingredientLines": [
    "2 peaches, cut into wedges",
    "230 grams flour",
    "100 grams shaved almonds",
    "180 grams butter",
    "220 grams sugar",
    "4 eggs",
    "1 teaspoon vanilla",
    "1 teaspoon baking powder",
    "zest from 1/2 lemon",
    "1 tablespoon lemon juice"
    ],
    "ingredients": [
    {
    "text": "2 peaches, cut into wedges",
    "quantity": 2.0,
    "measure": "<unit>",
    "food": "peaches",
    "weight": 306.33333333333337,
    "foodCategory": "fruit",
    "foodId": "food_b8pgy4cbnid3sfawqjg92a63pq85",
    "image": "https://www.edamam.com/food-img/437/4378245cfab2121c9e6eb9e3c3dc9ac8.jpg"
    },
    {
    "text": "230 grams flour",
    "quantity": 230.0,
    "measure": "gram",
    "food": "flour",
    "weight": 230.0,
    "foodCategory": "grains",
    "foodId": "food_ahebfs0a985an4aubqaebbipra58",
    "image": "https://www.edamam.com/food-img/b4c/b4c739e76a6f2172b7ad49d0aa41d5aa.jpg"
    },
    {
    "text": "100 grams shaved almonds",
    "quantity": 100.0,
    "measure": "gram",
    "food": "almonds",
    "weight": 100.0,
    "foodCategory": "plant-based protein",
    "foodId": "food_bq4d2wras281i0br37nrnaglo3yc",
    "image": "https://www.edamam.com/food-img/6c2/6c2dc21adf11afc4c8d390ee2f651e56.jpg"
    },
    {
    "text": "180 grams butter",
    "quantity": 180.0,
    "measure": "gram",
    "food": "butter",
    "weight": 180.0,
    "foodCategory": "Dairy",
    "foodId": "food_awz3iefajbk1fwahq9logahmgltj",
    "image": "https://www.edamam.com/food-img/713/71397239b670d88c04faa8d05035cab4.jpg"
    },
    {
    "text": "220 grams sugar",
    "quantity": 220.0,
    "measure": "gram",
    "food": "sugar",
    "weight": 220.0,
    "foodCategory": "sugars",
    "foodId": "food_axi2ijobrk819yb0adceobnhm1c2",
    "image": "https://www.edamam.com/food-img/ecb/ecb3f5aaed96d0188c21b8369be07765.jpg"
    },
    {
    "text": "4 eggs",
    "quantity": 4.0,
    "measure": "<unit>",
    "food": "eggs",
    "weight": 172.0,
    "foodCategory": "Eggs",
    "foodId": "food_bhpradua77pk16aipcvzeayg732r",
    "image": "https://www.edamam.com/food-img/a7e/a7ec7c337cb47c6550b3b118e357f077.jpg"
    },
    {
    "text": "1 teaspoon vanilla",
    "quantity": 1.0,
    "measure": "teaspoon",
    "food": "vanilla",
    "weight": 4.2,
    "foodCategory": "Condiments and sauces",
    "foodId": "food_bh1wvnqaw3q7ciascfoygaabax2a",
    "image": "https://www.edamam.com/food-img/90f/90f910b0bf82750d4f6528263e014cca.jpg"
    },
    {
    "text": "1 teaspoon baking powder",
    "quantity": 1.0,
    "measure": "teaspoon",
    "food": "baking powder",
    "weight": 4.6,
    "foodCategory": "condiments and sauces",
    "foodId": "food_bad4zycbt4w60dbut111vaub2g3e",
    "image": "https://www.edamam.com/food-img/a84/a8410ec57a2e62a1ad9955ac14d40af6.jpg"
    },
    {
    "text": "zest from 1/2 lemon",
    "quantity": 0.5,
    "measure": "<unit>",
    "food": "lemon",
    "weight": 29.0,
    "foodCategory": "fruit",
    "foodId": "food_a6uzc62astrxcgbtzyq59b6fncrr",
    "image": "https://www.edamam.com/food-img/70a/70acba3d4c734d7c70ef4efeed85dc8f.jpg"
    },
    {
    "text": "1 tablespoon lemon juice",
    "quantity": 1.0,
    "measure": "tablespoon",
    "food": "lemon juice",
    "weight": 15.2499999997422,
    "foodCategory": "100% juice",
    "foodId": "food_bglm6vxahuauteb0n6ynfbg9eryu",
    "image": "https://www.edamam.com/food-img/e31/e310952d214e78a4cb8b73f30ceeaaf2.jpg"
    }
    ],
    "calories": 3949.8369999999436,
    "totalWeight": 1261.3833333330756,
    "totalTime": 75.0,
    "cuisineType": [
    "american"
    ],
    "mealType": [
    "lunch/dinner"
    ],
    "dishType": [
    "desserts"
    ],
    "totalNutrients": {
    "ENERC_KCAL": {
    "label": "Energy",
    "quantity": 3949.8369999999436,
    "unit": "kcal"
    },
    "FAT": {
    "label": "Fat",
    "quantity": 215.4311533333327,
    "unit": "g"
    },
    "FASAT": {
    "label": "Saturated",
    "quantity": 102.07365333333323,
    "unit": "g"
    },
    "FATRN": {
    "label": "Trans",
    "quantity": 5.98076,
    "unit": "g"
    },
    "FAMS": {
    "label": "Monounsaturated",
    "quantity": 76.09042833333332,
    "unit": "g"
    },
    "FAPU": {
    "label": "Polyunsaturated",
    "quantity": 22.33584716666661,
    "unit": "g"
    },
    "CHOCDF": {
    "label": "Carbs",
    "quantity": 452.98454999998233,
    "unit": "g"
    },
    "FIBTG": {
    "label": "Fiber",
    "quantity": 24.171949999999228,
    "unit": "g"
    },
    "SUGAR": {
    "label": "Sugars",
    "quantity": 252.6173666666602,
    "unit": "g"
    },
    "SUGAR.added": {
    "label": "Sugars, added",
    "quantity": 219.56,
    "unit": "g"
    },
    "PROCNT": {
    "label": "Protein",
    "quantity": 71.20932833333244,
    "unit": "g"
    },
    "CHOLE": {
    "label": "Cholesterol",
    "quantity": 1026.8400000000001,
    "unit": "mg"
    },
    "NA": {
    "label": "Sodium",
    "quantity": 636.0284999999975,
    "unit": "mg"
    },
    "CA": {
    "label": "Calcium",
    "quantity": 811.2609999999844,
    "unit": "mg"
    },
    "MG": {
    "label": "Magnesium",
    "quantity": 377.9429999999846,
    "unit": "mg"
    },
    "K": {
    "label": "Potassium",
    "quantity": 1908.2668333330678,
    "unit": "mg"
    },
    "FE": {
    "label": "Iron",
    "quantity": 11.032493333333127,
    "unit": "mg"
    },
    "ZN": {
    "label": "Zinc",
    "quantity": 7.684131666666539,
    "unit": "mg"
    },
    "P": {
    "label": "Phosphorus",
    "quantity": 1636.7666666666462,
    "unit": "mg"
    },
    "VITA_RAE": {
    "label": "Vitamin A",
    "quantity": 1555.7033333333334,
    "unit": "µg"
    },
    "VITC": {
    "label": "Vitamin C",
    "quantity": 41.48974999990023,
    "unit": "mg"
    },
    "THIA": {
    "label": "Thiamin (B1)",
    "quantity": 0.6480419999999382,
    "unit": "mg"
    },
    "RIBF": {
    "label": "Riboflavin (B2)",
    "quantity": 2.2260808333332944,
    "unit": "mg"
    },
    "NIA": {
    "label": "Niacin (B3)",
    "quantity": 9.227374166666431,
    "unit": "mg"
    },
    "VITB6A": {
    "label": "Vitamin B6",
    "quantity": 0.6438903333332148,
    "unit": "mg"
    },
    "FOLDFE": {
    "label": "Folate equivalent (total)",
    "quantity": 208.5333333332818,
    "unit": "µg"
    },
    "FOLFD": {
    "label": "Folate (food)",
    "quantity": 208.5333333332818,
    "unit": "µg"
    },
    "FOLAC": {
    "label": "Folic acid",
    "quantity": 0.0,
    "unit": "µg"
    },
    "VITB12": {
    "label": "Vitamin B12",
    "quantity": 1.8368,
    "unit": "µg"
    },
    "VITD": {
    "label": "Vitamin D",
    "quantity": 6.140000000000001,
    "unit": "µg"
    },
    "TOCPHA": {
    "label": "Vitamin E",
    "quantity": 34.05260833333295,
    "unit": "mg"
    },
    "VITK1": {
    "label": "Vitamin K",
    "quantity": 21.77066666666667,
    "unit": "µg"
    },
    "WATER": {
    "label": "Water",
    "quantity": 509.65226833309544,
    "unit": "g"
    }
    },
    "totalDaily": {
    "ENERC_KCAL": {
    "label": "Energy",
    "quantity": 197.49184999999719,
    "unit": "%"
    },
    "FAT": {
    "label": "Fat",
    "quantity": 331.43254358974264,
    "unit": "%"
    },
    "FASAT": {
    "label": "Saturated",
    "quantity": 510.3682666666661,
    "unit": "%"
    },
    "CHOCDF": {
    "label": "Carbs",
    "quantity": 150.9948499999941,
    "unit": "%"
    },
    "FIBTG": {
    "label": "Fiber",
    "quantity": 96.68779999999691,
    "unit": "%"
    },
    "PROCNT": {
    "label": "Protein",
    "quantity": 142.41865666666487,
    "unit": "%"
    },
    "CHOLE": {
    "label": "Cholesterol",
    "quantity": 342.28000000000003,
    "unit": "%"
    },
    "NA": {
    "label": "Sodium",
    "quantity": 26.501187499999897,
    "unit": "%"
    },
    "CA": {
    "label": "Calcium",
    "quantity": 81.12609999999843,
    "unit": "%"
    },
    "MG": {
    "label": "Magnesium",
    "quantity": 89.98642857142491,
    "unit": "%"
    },
    "K": {
    "label": "Potassium",
    "quantity": 40.60142198580995,
    "unit": "%"
    },
    "FE": {
    "label": "Iron",
    "quantity": 61.29162962962849,
    "unit": "%"
    },
    "ZN": {
    "label": "Zinc",
    "quantity": 69.85574242424126,
    "unit": "%"
    },
    "P": {
    "label": "Phosphorus",
    "quantity": 233.8238095238066,
    "unit": "%"
    },
    "VITA_RAE": {
    "label": "Vitamin A",
    "quantity": 172.85592592592593,
    "unit": "%"
    },
    "VITC": {
    "label": "Vitamin C",
    "quantity": 46.09972222211137,
    "unit": "%"
    },
    "THIA": {
    "label": "Thiamin (B1)",
    "quantity": 54.003499999994844,
    "unit": "%"
    },
    "RIBF": {
    "label": "Riboflavin (B2)",
    "quantity": 171.23698717948417,
    "unit": "%"
    },
    "NIA": {
    "label": "Niacin (B3)",
    "quantity": 57.67108854166519,
    "unit": "%"
    },
    "VITB6A": {
    "label": "Vitamin B6",
    "quantity": 49.53002564101652,
    "unit": "%"
    },
    "FOLDFE": {
    "label": "Folate equivalent (total)",
    "quantity": 52.13333333332045,
    "unit": "%"
    },
    "VITB12": {
    "label": "Vitamin B12",
    "quantity": 76.53333333333335,
    "unit": "%"
    },
    "VITD": {
    "label": "Vitamin D",
    "quantity": 40.93333333333333,
    "unit": "%"
    },
    "TOCPHA": {
    "label": "Vitamin E",
    "quantity": 227.0173888888863,
    "unit": "%"
    },
    "VITK1": {
    "label": "Vitamin K",
    "quantity": 18.142222222222227,
    "unit": "%"
    }
    },
    "digest": [
    {
    "label": "Fat",
    "tag": "FAT",
    "schemaOrgTag": "fatContent",
    "total": 215.4311533333327,
    "hasRDI": true,
    "daily": 331.43254358974264,
    "unit": "g",
    "sub": [
    {
    "label": "Saturated",
    "tag": "FASAT",
    "schemaOrgTag": "saturatedFatContent",
    "total": 102.07365333333323,
    "hasRDI": true,
    "daily": 510.3682666666661,
    "unit": "g"
    },
    {
    "label": "Trans",
    "tag": "FATRN",
    "schemaOrgTag": "transFatContent",
    "total": 5.98076,
    "hasRDI": false,
    "daily": 0.0,
    "unit": "g"
    },
    {
    "label": "Monounsaturated",
    "tag": "FAMS",
    "schemaOrgTag": null,
    "total": 76.09042833333332,
    "hasRDI": false,
    "daily": 0.0,
    "unit": "g"
    },
    {
    "label": "Polyunsaturated",
    "tag": "FAPU",
    "schemaOrgTag": null,
    "total": 22.33584716666661,
    "hasRDI": false,
    "daily": 0.0,
    "unit": "g"
    }
    ]
    },
    {
    "label": "Carbs",
    "tag": "CHOCDF",
    "schemaOrgTag": "carbohydrateContent",
    "total": 452.98454999998233,
    "hasRDI": true,
    "daily": 150.9948499999941,
    "unit": "g",
    "sub": [
    {
    "label": "Carbs (net)",
    "tag": "CHOCDF.net",
    "schemaOrgTag": null,
    "total": 0.0,
    "hasRDI": false,
    "daily": 0.0,
    "unit": "g"
    },
    {
    "label": "Fiber",
    "tag": "FIBTG",
    "schemaOrgTag": "fiberContent",
    "total": 24.171949999999228,
    "hasRDI": true,
    "daily": 96.68779999999691,
    "unit": "g"
    },
    {
    "label": "Sugars",
    "tag": "SUGAR",
    "schemaOrgTag": "sugarContent",
    "total": 252.6173666666602,
    "hasRDI": false,
    "daily": 0.0,
    "unit": "g"
    },
    {
    "label": "Sugars, added",
    "tag": "SUGAR.added",
    "schemaOrgTag": null,
    "total": 219.56,
    "hasRDI": false,
    "daily": 0.0,
    "unit": "g"
    }
    ]
    },
    {
    "label": "Protein",
    "tag": "PROCNT",
    "schemaOrgTag": "proteinContent",
    "total": 71.20932833333244,
    "hasRDI": true,
    "daily": 142.41865666666487,
    "unit": "g"
    },
    {
    "label": "Cholesterol",
    "tag": "CHOLE",
    "schemaOrgTag": "cholesterolContent",
    "total": 1026.8400000000001,
    "hasRDI": true,
    "daily": 342.28000000000003,
    "unit": "mg"
    },
    {
    "label": "Sodium",
    "tag": "NA",
    "schemaOrgTag": "sodiumContent",
    "total": 636.0284999999975,
    "hasRDI": true,
    "daily": 26.501187499999897,
    "unit": "mg"
    },
    {
    "label": "Calcium",
    "tag": "CA",
    "schemaOrgTag": null,
    "total": 811.2609999999844,
    "hasRDI": true,
    "daily": 81.12609999999843,
    "unit": "mg"
    },
    {
    "label": "Magnesium",
    "tag": "MG",
    "schemaOrgTag": null,
    "total": 377.9429999999846,
    "hasRDI": true,
    "daily": 89.98642857142491,
    "unit": "mg"
    },
    {
    "label": "Potassium",
    "tag": "K",
    "schemaOrgTag": null,
    "total": 1908.2668333330678,
    "hasRDI": true,
    "daily": 40.60142198580995,
    "unit": "mg"
    },
    {
    "label": "Iron",
    "tag": "FE",
    "schemaOrgTag": null,
    "total": 11.032493333333127,
    "hasRDI": true,
    "daily": 61.29162962962849,
    "unit": "mg"
    },
    {
    "label": "Zinc",
    "tag": "ZN",
    "schemaOrgTag": null,
    "total": 7.684131666666539,
    "hasRDI": true,
    "daily": 69.85574242424126,
    "unit": "mg"
    },
    {
    "label": "Phosphorus",
    "tag": "P",
    "schemaOrgTag": null,
    "total": 1636.7666666666462,
    "hasRDI": true,
    "daily": 233.8238095238066,
    "unit": "mg"
    },
    {
    "label": "Vitamin A",
    "tag": "VITA_RAE",
    "schemaOrgTag": null,
    "total": 1555.7033333333334,
    "hasRDI": true,
    "daily": 172.85592592592593,
    "unit": "µg"
    },
    {
    "label": "Vitamin C",
    "tag": "VITC",
    "schemaOrgTag": null,
    "total": 41.48974999990023,
    "hasRDI": true,
    "daily": 46.09972222211137,
    "unit": "mg"
    },
    {
    "label": "Thiamin (B1)",
    "tag": "THIA",
    "schemaOrgTag": null,
    "total": 0.6480419999999382,
    "hasRDI": true,
    "daily": 54.003499999994844,
    "unit": "mg"
    },
    {
    "label": "Riboflavin (B2)",
    "tag": "RIBF",
    "schemaOrgTag": null,
    "total": 2.2260808333332944,
    "hasRDI": true,
    "daily": 171.23698717948417,
    "unit": "mg"
    },
    {
    "label": "Niacin (B3)",
    "tag": "NIA",
    "schemaOrgTag": null,
    "total": 9.227374166666431,
    "hasRDI": true,
    "daily": 57.67108854166519,
    "unit": "mg"
    },
    {
    "label": "Vitamin B6",
    "tag": "VITB6A",
    "schemaOrgTag": null,
    "total": 0.6438903333332148,
    "hasRDI": true,
    "daily": 49.53002564101652,
    "unit": "mg"
    },
    {
    "label": "Folate equivalent (total)",
    "tag": "FOLDFE",
    "schemaOrgTag": null,
    "total": 208.5333333332818,
    "hasRDI": true,
    "daily": 52.13333333332045,
    "unit": "µg"
    },
    {
    "label": "Folate (food)",
    "tag": "FOLFD",
    "schemaOrgTag": null,
    "total": 208.5333333332818,
    "hasRDI": false,
    "daily": 0.0,
    "unit": "µg"
    },
    {
    "label": "Folic acid",
    "tag": "FOLAC",
    "schemaOrgTag": null,
    "total": 0.0,
    "hasRDI": false,
    "daily": 0.0,
    "unit": "µg"
    },
    {
    "label": "Vitamin B12",
    "tag": "VITB12",
    "schemaOrgTag": null,
    "total": 1.8368,
    "hasRDI": true,
    "daily": 76.53333333333335,
    "unit": "µg"
    },
    {
    "label": "Vitamin D",
    "tag": "VITD",
    "schemaOrgTag": null,
    "total": 6.140000000000001,
    "hasRDI": true,
    "daily": 40.93333333333333,
    "unit": "µg"
    },
    {
    "label": "Vitamin E",
    "tag": "TOCPHA",
    "schemaOrgTag": null,
    "total": 34.05260833333295,
    "hasRDI": true,
    "daily": 227.0173888888863,
    "unit": "mg"
    },
    {
    "label": "Vitamin K",
    "tag": "VITK1",
    "schemaOrgTag": null,
    "total": 21.77066666666667,
    "hasRDI": true,
    "daily": 18.142222222222227,
    "unit": "µg"
    },
    {
    "label": "Sugar alcohols",
    "tag": "Sugar.alcohol",
    "schemaOrgTag": null,
    "total": 0.0,
    "hasRDI": false,
    "daily": 0.0,
    "unit": "g"
    },
    {
    "label": "Water",
    "tag": "WATER",
    "schemaOrgTag": null,
    "total": 509.65226833309544,
    "hasRDI": false,
    "daily": 0.0,
    "unit": "g"
    }
    ]
    },
    "_links": {
    "self": {
    "href": "https://api.edamam.com/api/recipes/v2/6df83bbfd9978922e51f1f0a8a453031?type=public&app_id=51f9801c&app_key=32c858b39ceb0df2fadf69b33d49e09c",
    "title": "Self"
    }
    }
    }
    ]
}
